ST558 HW 3: Tidyverse, data reading, joins
…
Rows: 214 Columns: 11

── Column specification ────────────────────────────────────────────────────────
Delimiter: ","
dbl (11): ID, RI, Na, Mg, Al, Si, K, Ca, Ba, Fe, Type_of_glass

ℹ Use `spec()` to retrieve the full column specification for this data.
ℹ Specify the column types or set `show_col_types = FALSE` to quiet this message.

# print
glass.data

# A tibble: 214 × 11
      ID    RI    Na    Mg    Al    Si     K    Ca    Ba    Fe Type_of_glass
   <dbl> <dbl> <dbl> <dbl> <dbl> <dbl> <dbl> <dbl> <dbl> <dbl>         <dbl>
 1     1  1.52  13.6  4.49  1.1   71.8  0.06  8.75     0  0                1
 2     2  1.52  13.9  3.6   1.36  72.7  0.48  7.83     0  0                1
 3     3  1.52  13.5  3.55  1.54  73.0  0.39  7.78     0  0                1
 4     4  1.52  13.2  3.69  1.29  72.6  0.57  8.22     0  0                1
 5     5  1.52  13.3  3.62  1.24  73.1  0.55  8.07     0  0                1
 6     6  1.52  12.8  3.61  1.62  73.0  0.64  8.07     0  0.26             1
 7     7  1.52  13.3  3.6   1.14  73.1  0.58  8.17     0  0                1
 8     8  1.52  13.2  3.61  1.05  73.2  0.57  8.24     0  0                1
 9     9  1.52  14.0  3.58  1.37  72.1  0.56  8.3      0  0                1
10    10  1.52  13    3.6   1.36  73.0  0.57  8.4      0  0.11             1
# ℹ 204 more rows
…
glass.data |>
  mutate(
    Type_of_glass = case_when(
      Type_of_glass == 1 ~ "building_windows_float_processed",
      Type_of_glass == 2 ~ "building_windows_non_float_processed",
      Type_of_glass == 3 ~ "vehicle_windows_float_processed", 
      Type_of_glass == 4 ~ "vehicle_windows_non_float_processed", 
      Type_of_glass == 5 ~ "containers",
      Type_of_glass == 6 ~ "tableware",
      Type_of_glass == 7 ~ "headlamps"
    )
  ) |>
  filter(Fe < 0.2 & (Type_of_glass %in% c("tableware", "headlamps")))

# A tibble: 38 × 11
      ID    RI    Na    Mg    Al    Si     K    Ca    Ba    Fe Type_of_glass
   <dbl> <dbl> <dbl> <dbl> <dbl> <dbl> <dbl> <dbl> <dbl> <dbl> <chr>        
 1   177  1.52  14    2.39  1.56  72.4  0     9.57  0        0 tableware    
 2   178  1.52  13.8  2.41  1.19  72.8  0     9.77  0        0 tableware    
 3   179  1.52  14.5  2.24  1.62  72.4  0     9.26  0        0 tableware    
 4   180  1.52  14.1  2.19  1.66  72.7  0     9.32  0        0 tableware    
 5   181  1.51  14.4  1.74  1.54  74.6  0     7.59  0        0 tableware    
 6   182  1.52  15.0  0.78  1.74  72.5  0     9.95  0        0 tableware    
 7   183  1.52  14.2  0     2.09  72.7  0    10.9   0        0 tableware    
 8   184  1.52  14.6  0     0.56  73.5  0    11.2   0        0 tableware    
 9   185  1.51  17.4  0     0.34  75.4  0     6.65  0        0 tableware    
10   186  1.51  13.7  3.2   1.81  72.8  1.76  5.43  1.19     0 headlamps    
# ℹ 28 more rows
…
# Dropping seq_name, nuc, then grouping by class to add mean and median columns for each numeric variable
yeast.data |>
  select(-seq_name, -nuc) |>
  group_by(class) |>
  mutate(across(where(is.numeric), list(mean = mean, median = median)))

# A tibble: 1,484 × 22
# Groups:   class [10]
     mcg   gvh   alm   mit   erl   pox   vac class mcg_mean mcg_median gvh_mean
   <dbl> <dbl> <dbl> <dbl> <dbl> <dbl> <dbl> <chr>    <dbl>      <dbl>    <dbl>
 1  0.58  0.61  0.47  0.13   0.5   0    0.48 MIT      0.521       0.51    0.533
 2  0.43  0.67  0.48  0.27   0.5   0    0.53 MIT      0.521       0.51    0.533
 3  0.64  0.62  0.49  0.15   0.5   0    0.53 MIT      0.521       0.51    0.533
 4  0.58  0.44  0.57  0.13   0.5   0    0.54 NUC      0.452       0.45    0.456
 5  0.42  0.44  0.48  0.54   0.5   0    0.48 MIT      0.521       0.51    0.533
 6  0.51  0.4   0.56  0.17   0.5   0.5  0.49 CYT      0.481       0.48    0.470
 7  0.5   0.54  0.48  0.65   0.5   0    0.53 MIT      0.521       0.51    0.533
 8  0.48  0.45  0.59  0.2    0.5   0    0.58 NUC      0.452       0.45    0.456
 9  0.55  0.5   0.66  0.36   0.5   0    0.49 MIT      0.521       0.51    0.533
10  0.4   0.39  0.6   0.15   0.5   0    0.58 CYT      0.481       0.48    0.470
# ℹ 1,474 more rows
# ℹ 11 more variables: gvh_median <dbl>, alm_mean <dbl>, alm_median <dbl>,
#   mit_mean <dbl>, mit_median <dbl>, erl_mean <dbl>, erl_median <dbl>,
#   pox_mean <dbl>, pox_median <dbl>, vac_mean <dbl>, vac_median <dbl>

Next, we look at Excel data.

Combining Excel and Delimited Data

We’ll be looking at red/white wine data from the UCI Machine Learning Repository. We’ll read in the white-wine.xlsx file for white wines, and we’ll read in red wines from the data site for this course. Since the variable names in the white wine data are non-standard, we’ll use the second sheet to grab standard names.

library(readxl)

# Reading in white wines from the Excel file sheet 1.
white_wine <- read_excel("white-wine.xlsx", sheet = 1)

white_wine

# A tibble: 4,898 × 12
   `fixed acidity` `volatile acidity` `citric acid` `residual sugar` chlorides
             <dbl>              <dbl>         <dbl>            <dbl>     <dbl>
 1               7               0.27          0.36             20.7     0.045
 2              63               0.3           0.34              1.6     0.049
 3              81               0.28          0.4               6.9     0.05 
 4              72               0.23          0.32              8.5     0.058
 5              72               0.23          0.32              8.5     0.058
 6              81               0.28          0.4               6.9     0.05 
 7              62               0.32          0.16              7       0.045
 8               7               0.27          0.36             20.7     0.045
 9              63               0.3           0.34              1.6     0.049
10              81               0.22          0.43              1.5     0.044
# ℹ 4,888 more rows
# ℹ 7 more variables: `free sulfur dioxide` <dbl>,
#   `total sulfur dioxide` <dbl>, density <dbl>, pH <dbl>, sulphates <dbl>,
#   alcohol <dbl>, quality <dbl>
…
We’ll sort from highest to lowest quality

We’ll grab only variables that contain "acid", the alcohol variable, and the type and quality variables

We’ll add the mean and standard deviation of the alcohol variable for each setting of the quality variable.

wines |>
  filter(quality > 6.5 & alcohol < 132) |>
  arrange(desc(quality)) |>
  select(contains("acid"), alcohol, type, quality) |>
  group_by(quality) |>
  mutate(across(alcohol, list(mean = mean, sd = sd)))

# A tibble: 1,206 × 8
# Groups:   quality [3]
   fixed_acidity volatile_acidity citric_acid alcohol type  quality alcohol_mean
           <dbl>            <dbl>       <dbl>   <dbl> <chr>   <dbl>        <dbl>
 1            91             0.27        0.45     104 white       9        122. 
 2            66             0.36        0.29     124 white       9        122. 
 3            74             0.24        0.36     125 white       9        122. 
 4            69             0.36        0.34     127 white       9        122. 
 5            71             0.26        0.49     129 white       9        122. 
 6            62             0.66        0.48     128 white       8         94.1
 7            62             0.66        0.48     128 white       8         94.1
 8            68             0.26        0.42     105 white       8         94.1
 9            67             0.23        0.31     107 white       8         94.1
10            67             0.23        0.31     107 white       8         94.1
# ℹ 1,196 more rows
# ℹ 1 more variable: alcohol_sd <dbl>

Task 3: Database Practice

Here we practice connecting to databases to analyze data. We’ll return all the data in the Teams table for the year 2015. We’ll do it with R syntax first, then we’ll write SQL to do the same thing.

library(DBI)
con <- dbConnect(RSQLite::SQLite(), "lahman.db")

# R data manipulation syntax
tbl(con, "Teams") |>
  filter(yearID == 2015) |>
  collect()

# A tibble: 30 × 48
   yearID lgID  teamID franchID divID  Rank     G Ghome     W     L DivWin WCWin
    <int> <chr> <chr>  <chr>    <chr> <int> <int> <int> <int> <int> <chr>  <chr>
 1   2015 NL    ARI    ARI      W         3   162    81    79    83 N      N    
 2   2015 NL    ATL    ATL      E         4   162    81    67    95 N      N    
 3   2015 AL    BAL    BAL      E         3   162    78    81    81 N      N    
 4   2015 AL    BOS    BOS      E         5   162    81    78    84 N      N    
 5   2015 AL    CHA    CHW      C         4   162    81    76    86 N      N    
 6   2015 NL    CHN    CHC      C         3   162    81    97    65 N      Y    
 7   2015 NL    CIN    CIN      C         5   162    81    64    98 N      N    
 8   2015 AL    CLE    CLE      C         3   161    80    81    80 N      N    
 9   2015 NL    COL    COL      W         5   162    81    68    94 N      N    
10   2015 AL    DET    DET      C         5   161    81    74    87 N      N    
# ℹ 20 more rows
# ℹ 36 more variables: LgWin <chr>, WSWin <chr>, R <int>, AB <int>, H <int>,
#   X2B <int>, X3B <int>, HR <int>, BB <int>, SO <int>, SB <int>, CS <int>,
#   HBP <int>, SF <int>, RA <int>, ER <int>, ERA <dbl>, CG <int>, SHO <int>,
#   SV <int>, IPouts <int>, HA <int>, HRA <int>, BBA <int>, SOA <int>, E <int>,
#   DP <int>, FP <dbl>, name <chr>, park <chr>, attendance <int>, BPF <int>,
#   PPF <int>, teamIDBR <chr>, teamIDlahman45 <chr>, teamIDretro <chr>

# SQL for data manipulation
tbl(con, sql("SELECT * FROM Teams WHERE yearID = 2015")) |> collect()

# A tibble: 30 × 48
   yearID lgID  teamID franchID divID  Rank     G Ghome     W     L DivWin WCWin
    <int> <chr> <chr>  <chr>    <chr> <int> <int> <int> <int> <int> <chr>  <chr>
 1   2015 NL    ARI    ARI      W         3   162    81    79    83 N      N    
 2   2015 NL    ATL    ATL      E         4   162    81    67    95 N      N    
 3   2015 AL    BAL    BAL      E         3   162    78    81    81 N      N    
 4   2015 AL    BOS    BOS      E         5   162    81    78    84 N      N    
 5   2015 AL    CHA    CHW      C         4   162    81    76    86 N      N    
 6   2015 NL    CHN    CHC      C         3   162    81    97    65 N      Y    
 7   2015 NL    CIN    CIN      C         5   162    81    64    98 N      N    
 8   2015 AL    CLE    CLE      C         3   161    80    81    80 N      N    
 9   2015 NL    COL    COL      W         5   162    81    68    94 N      N    
10   2015 AL    DET    DET      C         5   161    81    74    87 N      N    
# ℹ 20 more rows
# ℹ 36 more variables: LgWin <chr>, WSWin <chr>, R <int>, AB <int>, H <int>,
#   X2B <int>, X3B <int>, HR <int>, BB <int>, SO <int>, SB <int>, CS <int>,
#   HBP <int>, SF <int>, RA <int>, ER <int>, ERA <dbl>, CG <int>, SHO <int>,
#   SV <int>, IPouts <int>, HA <int>, HRA <int>, BBA <int>, SOA <int>, E <int>,
#   DP <int>, FP <dbl>, name <chr>, park <chr>, attendance <int>, BPF <int>,
#   PPF <int>, teamIDBR <chr>, teamIDlahman45 <chr>, teamIDretro <chr>

Now we’ll stick to dplyr functions for data manipulation and add a little complexity. We’ll be working with the HallOfFame and People tables. We’ll be grabbing only players inducted into the hall of fame, and then joining their actual first and last names to that roster.

# Grabbing players inducted into the Hall of Fame
hof_subset <- tbl(con, "HallOfFame") |> 
  filter(inducted == "Y") |> 
  select(playerID, yearID, category)

hof_subset |> collect()

# A tibble: 340 × 3
   playerID  yearID category         
   <chr>      <int> <chr>            
 1 cobbty01    1936 Player           
 2 ruthba01    1936 Player           
 3 wagneho01   1936 Player           
 4 mathech01   1936 Player           
 5 johnswa01   1936 Player           
 6 lajoina01   1937 Player           
 7 speaktr01   1937 Player           
 8 youngcy01   1937 Player           
 9 bulkemo99   1937 Pioneer/Executive
10 johnsba99   1937 Pioneer/Executive
# ℹ 330 more rows

# Grabbing first and last names, along w/ playerID for joining
people_subset <- tbl(con, "People") |> select(playerID, nameFirst, nameLast)

hof_names_subset <- hof_subset |> left_join(people_subset)

Joining with `by = join_by(playerID)`

hof_names_subset |> collect()

# A tibble: 340 × 5
   playerID  yearID category          nameFirst nameLast 
   <chr>      <int> <chr>             <chr>     <chr>    
 1 cobbty01    1936 Player            Ty        Cobb     
 2 ruthba01    1936 Player            Babe      Ruth     
 3 wagneho01   1936 Player            Honus     Wagner   
 4 mathech01   1936 Player            Christy   Mathewson
 5 johnswa01   1936 Player            Walter    Johnson  
 6 lajoina01   1937 Player            Nap       Lajoie   
 7 speaktr01   1937 Player            Tris      Speaker  
 8 youngcy01   1937 Player            Cy        Young    
 9 bulkemo99   1937 Pioneer/Executive Morgan    Bulkeley 
10 johnsba99   1937 Pioneer/Executive Ban       Johnson  
# ℹ 330 more rows
…
mgr_win_loss_records <- managers_subset |>
group_by(playerID) |>
summarize(
  G_managed = sum(G, na.rm = TRUE), 
  Total_W = sum(W, na.rm = TRUE), 
  Total_L = sum(L, na.rm = TRUE)
  ) |>
  collect() |>
  mutate(win_pct = Total_W / G_managed) |> 
  arrange(desc(win_pct))

# printing
mgr_win_loss_records

# A tibble: 247 × 5
   playerID  G_managed Total_W Total_L win_pct
   <chr>         <int>   <int>   <int>   <dbl>
 1 highadi01        40      29      11   0.725
 2 wrighha01       423     306     109   0.723
 3 startjo01        25      18       7   0.72 
 4 grohhe01         10       7       3   0.7  
 5 wrighge01        85      59      25   0.694
 6 clemeja01        19      13       6   0.684
 7 streega01       154     101      53   0.656
 8 campaco01        42      27      14   0.643
 9 mcbridi01       252     161      85   0.639
10 spaldal01       126      78      47   0.619
# ℹ 237 more rows

We’ll now return records for people that managed a team and were inducted into the hall of fame. We can do this by doing an inner_join() between the Hall of Fame subset with player names, and the Manager’s Win/Loss records.

hof_mgrs <- hof_names_subset |> collect() |> inner_join(mgr_win_loss_records)

Joining with `by = join_by(playerID)`

hof_mgrs 

# A tibble: 63 × 9
   playerID yearID category nameFirst nameLast G_managed Total_W Total_L win_pct
   <chr>     <int> <chr>    <chr>     <chr>        <int>   <int>   <int>   <dbl>
 1 cobbty01   1936 Player   Ty        Cobb           933     479     444   0.513
 2 wagneho…   1936 Player   Honus     Wagner           5       1       4   0.2  
 3 mathech…   1936 Player   Christy   Mathews…        69      25      43   0.362
 4 lajoina…   1937 Player   Nap       Lajoie         700     377     309   0.539
 5 speaktr…   1937 Player   Tris      Speaker       1139     617     520   0.542
 6 youngcy…   1937 Player   Cy        Young            6       3       3   0.5  
 7 mackco01   1937 Manager  Connie    Mack           289     149     134   0.516
 8 mcgrajo…   1937 Manager  John      McGraw        1018     596     402   0.585
 9 wrighge…   1937 Pioneer… George    Wright          85      59      25   0.694
10 sislege…   1939 Player   George    Sisler         462     218     241   0.472
# ℹ 53 more rows
…
